{"status":200,"data":[{"id":"10571eb2-2f50-4175-a7b0-601f3ae88275","first_name":"Maria Paola","last_name":"Hinestroza Robledo","email":"MariaPaolal@gmail.com","phone":"33333333"},{"id":"4469df59-494b-4bb6-ad58-facdaf015ed8","first_name":"Maria Paola","last_name":"Hinestroza Robledo","email":"MariaPaolal@gmail.com","phone":"33333333"}],"meta":{"total_count":3,"page":1,"per_page":2,"page_count":2}}
